/* XPM */
static char *_7113f370f3f41a49c1b750e1683b1dbgPAvdjWC7kqqM5fd[] = {
/* columns rows colors chars-per-pixel */
"64 64 255 2 ",
"   c #010404",
".  c #020B04",
"X  c #080A05",
"o  c #02050B",
"O  c #09060D",
"+  c #040A0B",
"@  c #0A0C0C",
"#  c #071308",
"$  c #04120B",
"%  c #0B120D",
"&  c #11130F",
"*  c #050B11",
"=  c #050813",
"-  c #0C0C12",
";  c #110E12",
":  c #0C1413",
">  c #091517",
",  c #0C1B15",
"<  c #0E1C1A",
"1  c #121414",
"2  c #131A15",
"3  c #191816",
"4  c #121419",
"5  c #141D1A",
"6  c #1A1D1A",
"7  c #082519",
"8  c #17251A",
"9  c #15231C",
"0  c #1A231C",
"q  c #00361F",
"w  c #181E21",
"e  c #1B2522",
"r  c #1D2B23",
"t  c #1E2B2B",
"y  c #113728",
"u  c #1B3729",
"i  c #222524",
"p  c #222B24",
"a  c #242D2B",
"s  c #2A2D2A",
"d  c #312F2E",
"f  c #253627",
"g  c #25332B",
"h  c #2B342D",
"j  c #32392F",
"k  c #2A2E30",
"l  c #2B3432",
"z  c #293936",
"x  c #2D3B34",
"c  c #343C35",
"v  c #363B38",
"b  c #1B4430",
"n  c #27422E",
"m  c #30522B",
"M  c #294637",
"N  c #364637",
"B  c #34443B",
"V  c #344B3B",
"C  c #394B3C",
"Z  c #29533B",
"A  c #36573D",
"S  c #3B533C",
"D  c #3A663A",
"F  c #455A3D",
"G  c #2B4A42",
"H  c #394B45",
"J  c #3C4D44",
"K  c #2C5442",
"L  c #2C5C46",
"P  c #345444",
"I  c #3C5442",
"U  c #3C5A46",
"Y  c #375748",
"T  c #375C4B",
"R  c #3C5C4B",
"E  c #3A5752",
"W  c #3D634C",
"Q  c #356D4F",
"!  c #3B684B",
"~  c #3C6554",
"^  c #3C6B54",
"/  c #3F6558",
"(  c #434E48",
")  c #415444",
"_  c #4B5445",
"`  c #435B45",
"'  c #44554B",
"]  c #435C4C",
"[  c #495E4B",
"{  c #475554",
"}  c #445D53",
"|  c #4A5D53",
" . c #565C58",
".. c #45624C",
"X. c #4B644C",
"o. c #446849",
"O. c #4B6B4D",
"+. c #53674D",
"@. c #47754B",
"#. c #54714A",
"$. c #446453",
"%. c #4A6554",
"&. c #436A54",
"*. c #4B6C54",
"=. c #456658",
"-. c #4C655A",
";. c #456C5A",
":. c #4C6C5B",
">. c #536C55",
",. c #586A57",
"<. c #53655C",
"1. c #536D5B",
"2. c #4C7255",
"3. c #497956",
"4. c #44735B",
"5. c #4C725C",
"6. c #537354",
"7. c #587855",
"8. c #5C7A56",
"9. c #54745B",
"0. c #5B755C",
"q. c #547A5D",
"w. c #5C7A5D",
"e. c #666D5A",
"r. c #637559",
"t. c #637B5D",
"y. c #445163",
"u. c #486761",
"i. c #4C6D63",
"p. c #536D62",
"a. c #5A6C62",
"s. c #586B6B",
"d. c #467663",
"f. c #4D7563",
"g. c #4C7B62",
"h. c #547462",
"j. c #5B7563",
"k. c #557B63",
"l. c #5C7C64",
"z. c #567168",
"x. c #5A7569",
"c. c #557C6B",
"v. c #5D7C6B",
"b. c #5C7576",
"n. c #646A65",
"m. c #617564",
"M. c #677667",
"N. c #627D64",
"B. c #637D6B",
"V. c #6C7C6A",
"C. c #647E73",
"Z. c #677A75",
"A. c #4A8155",
"S. c #57845A",
"D. c #5B835D",
"F. c #62855D",
"G. c #4D8266",
"H. c #548264",
"J. c #5D8265",
"K. c #54846B",
"L. c #5C836C",
"P. c #59896A",
"I. c #5D8473",
"U. c #598774",
"Y. c #5B9670",
"T. c #638265",
"R. c #6A8465",
"E. c #638A65",
"W. c #6B8A66",
"Q. c #64846B",
"!. c #6A846C",
"~. c #648A6C",
"^. c #6B8A6D",
"/. c #71836C",
"(. c #728C6D",
"). c #69946B",
"_. c #6B926D",
"`. c #73946E",
"'. c #648472",
"]. c #6A8572",
"[. c #648A73",
"{. c #6C8B73",
"}. c #6A857B",
"|. c #658D7A",
" X c #6B8D7A",
".X c #758677",
"XX c #728C74",
"oX c #798B74",
"OX c #738D7A",
"+X c #6C9274",
"@X c #679479",
"#X c #6D937C",
"$X c #739275",
"%X c #799475",
"&X c #739B75",
"*X c #74937B",
"=X c #7B947B",
"-X c #75997B",
";X c #7C9A7D",
":X c #7CA476",
">X c #82887D",
",X c #82977B",
"<X c #82A87C",
"1X c #6C8E89",
"2X c #788C83",
"3X c #6A9583",
"4X c #749582",
"5X c #7B9482",
"6X c #749B84",
"7X c #7B9B83",
"8X c #789A8B",
"9X c #6DAB8D",
"0X c #7CA284",
"qX c #79A588",
"wX c #7BA38D",
"eX c #7DAA96",
"rX c #869887",
"tX c #829C84",
"yX c #859C8B",
"uX c #869C95",
"iX c #929B9F",
"pX c #83A284",
"aX c #84A28C",
"sX c #89A889",
"dX c #8FB08A",
"fX c #8BA393",
"gX c #89A897",
"hX c #95A998",
"jX c #8BB49B",
"kX c #99B699",
"lX c #97ABA4",
"zX c #94AFAE",
"xX c #9AB8A5",
"cX c #9CB6B4",
"vX c #A4BBAA",
"bX c #A5BAB6",
"nX c #B0BEB9",
"mX c #A1C39C",
"MX c #99C3AC",
"NX c #A6C6AC",
"BX c #AAC3B4",
"VX c #A9C6B9",
"CX c #B3CAB7",
"ZX c #A7D5B8",
"AX c #B4D4B7",
"SX c #ABB8C2",
"DX c #B2BAC5",
"FX c #ACC8C4",
"GX c #B4C9C7",
"HX c #B9D2C7",
"JX c #B4D2D0",
"KX c #C6D9D1",
"LX c #C6E1C8",
"PX c #C9E5D9",
"IX c #DBECE2",
/* pixels */
"~.*Xv.M L. X5.c.L.#X6X6Xf.3X|.Z I.I.d.U.~ 5.4.H.@XZXPX} # + # C 1.~.~.E.Q.Q.^.XX!.XX!.(.-X;XQ.~.&X^.v. X5.+XT.l.{. X&.~.~. Xc.f.",
"#Xf.c.T 5.~.6Xg.^ 6X6X3X[.[.4XI.K 3XU.K.;.;.4.4.G.ZXPX-.:   # x ..v.J.J.T.XX$X!.XX$XXX$X$X$X{.~.{.$X{.~.~.J.!.j.].XX{.9.#X8Xc.:.",
"I.g.[.;.k.c.@XL.5.|.qX|.k.*X4X'.Y d.3Xd.~ ~ d.d.K.MXPXH :   + g ..v.E.Q.l.W.XX{.W.$X{.XX;X{.v.j.{.{.{.[.J.J.{.XX!.{.~.v.c.[.|.[.",
"c.5.L.5.! @Xg.wX;.c.jX#XL.5.#X X&.f.K.U.Y 4.K.9XK.MXFXu.* o : g ] q.~.~.~.%XQ.^.+X{.{.^.*X7XXX9.Q.{.~.*X~.v.q.6XQ.~.L.5.c.[.[.c.",
"|.c.L.#XL g.|. X6Xf.L.[.I.I.5.6X#XL |.c.;.T 4.U.K.HXGXiX+ + : a ] 0.~.~.T.^.W.l.~.#X+X+X-X*XXXN.9.~.{.^.~.~.k.J.*X~.~.L.k.7X#X5.",
"k.I.c.#X! ! |.c.#X#X;. X Xk.L.5.L.3Xd.U.~ K &.&.Q ZXJXzX+ + @ e ] 0.~.~.T.0.W.T.l.J.{.~.^.{.W.0...~.{.{.*X{.N.N.~.[.-Xv.j.].*Xj.",
"&.c.k.|.3X^ U.[. XwXh. X6X|.h.{.7X[.^ d.^ I.T W ^ |.GXSX+ + @ 9 ] 0.~.~.w.N.N.W.v.q.l.^.~.$X$X%X%.9.7X-X].{.V.0.v.9.{.~.Q.{.aX9.",
"wXwXL.K.|.g.K.qXL.[.$.Y 3X|.v.OX7X Xd.eXK U.K.Q Q G.JXGXo - @ 2 ) 1.Q.Q.l.0.N.!.^.w.T.^.Q.^.$X%X9.n v.{.!.{.B.j. X~.L.*.v.Q.B.Q.",
"3X6XI.k.c.k.M K.|.c.5.K &.k.v.*XaX4Xd.3X;.c.^ G.Z Z FXbXo - - 2 C ..0.J.6.0.0.T.T.T.T.W.w.T.$XN.v.C N %.l.>.*.0.Q.^.*X9.&.9..X=X",
"c.|.L.&.1.R b W |.|.|.|.h.~ 6XwX#XI.3Xg.|.K 4.g.G.Z JXFXo - - 2 x ` O.6.X.>.0...9.w.w.w.6.T.t.>.,.,.' n [ [ ].].>.0.1.>.S ] 9.B.",
"M f u u r 8 M Y W Z Z Y Y M R ] *.:.$.i.~ L 4.K.^ q VXcXo - - 2 r I I S S S N f N V I S S ` F [ C C C ) [ ` ` I ) ) ) ) V M X.%.",
"9 8 8 r r e r B ' J I J ( B s i 9 x a x 7 b L d.L q U./ . @ @ - 5 e p 2 0 0 % % X X % 9 8 8 f s h x x B J C ) [ ) ) | | <.a.,.X.",
"h x 0 6 2 9 # 0 2 : 5 e 0 d d 3 a i 3 e <.K |.U.8Xc.3XY + + 5 < e : 5 0 e v c ( v i j ( <.<.'  .J c B x h h 0 f f f c x x B N j ",
"  . .   . # . # . . . . # X . X % . . # . +   4 4 5 , # : : , 7 7 $ # # # > 7 < : # + + . + > - : - +   o + + . # X 2 : : 5 6 6 ",
"<.m.B.OX0.j.` !.{.7XaXtX.XB.[ B.M.OX-.].2XB v s v s ' <.Z.hXfXaXfXxXxX5XgXlXgXxXlXZ.p.lXhXyXZ.a.h r B l a v t g f f x l i 3 @ X ",
"@X).D.~.q.D.J.D.~.J._.E.l.J.l.J.~.l.l.Q.{.{.tX=X*X;X7X5X$XXX,XR.7.$X-X0XQ.*X-X&X$X-X0XkXdXkXkXsXmXkXNXNXNXNXjXMXAXLXIXIXKXGXhX  ",
"H.3.S.@.A.).E.).E.3.+XD.D.~.S.P.q.q.J.3.~.~.&X+XD.E.w.XX^.w.t.7.%X_.&XD.T.dXW.T.D.^.&X&X^.F.).F.<X).-X&X:X_.&X0XdXW.vXPXHXKXGXH ",
"H.J.J.q.T.$XW.$X!.T.^.$X%XQ.~.q.^.N.^.q.~.l.{.Q.T.~.N.XX$X*XXX0.XX*X[.l.tX$X^.w.$XXX$X0.*X%X-X-XL.~.>.=X(.$X%X-X:X`.o.9.hXVXBXuX",
"9.q.0.q.^.+X^.T.T.w.T.$X;XXX!.l.9.{.*XQ.T.Q.0.Q.{.{.!.M.=XtXXXj.x.Q.Q.j.N.*X-XW.!.;X=X5X9.4Xq.[. XP .X!.XXpXQ.pX<XdXq.*.{.xXVXVX",
"l.J.T.0.q.~.E.E.E.D.w.{.!.&X;Xl.k.*X^.E._.w.0.Q.B.{.!.(.^.^.pXXX].'.h.B.~.Q.^.7X^.XX=X{.0.k.H.K.L.*...5X9.k.~.pX&XS.P.&.M xXHXHX",
"2.0XQ.q.5.E.$X$XD.E.Q.J.J.^.0X~.v.*X+XT.^.$X>.0.Q.OXl.l.N.{.%XN.x.OX'.*.{.N.tXQ.1.l.7X*XQ.A H.qXP. X..{.P.[.7Xl.dXS.^ G.b xXCXPX",
"8.D.*.j.2.q.T.R._.~.E.E.J.&X~.{.+Xj.T.8.^.W.Q.>.C.}.1.B.h.{.~.Q.9.*X$XT.v.~.j.OXQ.v.{.h.v.c.[.#Xk.Q.0.9.o.@Xv.v.sX~.@Xg.q v.BXHX",
"D.#.*.v.v.9.0.8.^.T.l.J.J.^.T.+XQ.T.N.W.w.^.N.B.Q.%.v.].x.:.*X].!.9.$XW.j.j.!.1.].].'.0.~.~.L.2.v.v.{.9.P.E.'.7Xw.0XP.K.y z.BXCX",
"T.8.] B. X9.R.t.%XW.E.l.XX!.Q.XX^.6.Q.!.7.R.T.^.T.w.w.OX=X].v.{.{.~.~.7X!.{.0.+Xv.{.v.Q.*X7XJ.Z *.N.^.*.J.7Xj.4X*.J.&XqXy $.vXvX",
"$XN.V ] l.l.!.R.0.!.!.N.N.oX*XXX^.T.>.~.!.l.^.`.R.^.T.W.=XtX*X].j.v.{.'.=X{.~.l.{.{.N.!.=XW.q.2.!.` v.7XQ.{.l.'.Q.5.4XaXM i.VXvX",
"^.>.-.1.9.l.!.N.w.Q.7XQ.N.{.XXW.R.!.T.h.2XC.N.XXw.T.T.T.W.Q.Q.4X{.{.v.].l.Q.!.0.v.Q.{.tXhX!.T.2.{.].9.N.!.N.aX]. XZ [.4XK :.xXgX",
"h.....%.%.X.XXR.N.T.{.Q.N.0.J.{.R.N.!.j.p.'.*XT.^.!.w.T.w.N.v.{.^.J.Q.].Q.w.{.N.Q.'.{.~.XXoXl.O.M ~.XX].{...!.{.l.A ~.wXY P BXlX",
":.R N.N.,.$XT.Q.^.W.{.!.tXl.J.{.T.T.0.B.[.[.^.w.N.0.~.+X^.!.B.1.Q.0.'.^.l.^.!.XXXXQ.q.q.*.Q.~.E.U M =X!.OXOX9.7Xv.>.O.v.&.f.bX2X",
":.h.W.$X>.l.&XQ.!.^.Q.Q.XX{.J.L.^.W.*X~.J.+X-X^.Q.Q.J.-XT.].tXN.Q.T.{.{.^.=XQ.*.{.*XH.#X[.2.J.&XQ.V ] ~.{.Q.Q.v.!.O.T.;X^ ~ VX2X",
"} h.,.t.O.o.l.^.N.7Xl.q.Q.Q.Q.T.J.T.{.Q.9.l.T.T.!.l.E.J.{.,.oX=X9.j.Q.=Xw.D.q.v.W ~.J.q.^.T.q.{.j.:...h.'.h.'.$.;Xw.A D.g.d.cXZ.",
"%.j.,.0...A 9.q.W.W.w.J.l.l.w.{.~.6.W.XXQ.+XT.w.N.l.*XQ.Q.XX!.yXXX%.XXXXT.E.J.~.5.~.-Xq.w.{.^.*.{.W 4X Xx.h.:.:.o.^.7.2.P.K.zXp.",
"].5XM.+.M.X.*.Q.!.XX6.9.!.l.{.XX;XT.w.^.l.{.w.>.` XX!.-Xl.Q.OXB.Q.w.!.XXsX(.2.~.[.9.$XN.7.7.l.Q.Q.c.U h. X1.1.9.!.T.%XE.d.3XJXE ",
"Q.1.>.>.>.0.A v.N.N.!.` 0.T.T.N.W.N.w.T.N.7.N.X.X.X.w.{.#X*X*XOX7X{.>.=Xt.(.{.U v.v.l.^.O.T.+XT.h.4X*.M *.gX..T.J.6.^.sXk.K VXH ",
"~.X.n 1.9.0.2.l.0.X.Q.o.l.{.,.N.w.w.l.N.^.T.>.` ;X+.S 0.k.6X6X5.J.L.{.=X(.W.^.>.R 0X[.P.E.~.pX+X X'.l.n &.-Xo.5.J.! c.L.6XW cXH ",
"V V ) [ [ ] *...N ) n %.>.n n j C N A ` ) ` [ X.+.+.[ V %.:.%.$.:.] j.N.N.0.[ ) ..h.~.k.*.v.Q.Q.].p.1.n {.9.J.:.R Y Y ;.:.H vXz ",
"e 6 w a l l g g g h h c v v v c c a 9 p p g i h s p 0 i a k l l a e e 5 9 6 0 # 2 9 f h a z a a e @ # . # . . : + + > l t a iX* ",
"@ 1 1 1 4 : X : # # X @ 3 @ 3 3 & % X % % % @ % @ % : @ O ; ; - ; O + : - @ + + X % X : * * * + - + + . + @ + @ o o : + 2   :   ",
". . . # X 5 x 8 , # # . o 1 3 3 , # . . X # # . . .     o O - - O           o @ . # . X   @ + + < 9 9 8 x N x B B r .XyXN rXhXM.",
"m.].].B.' M.fXfX5Xx..Xa. .n.n..XyXoX,XrXhXhXhXyXfXfXa.{ : - 3 s k v l a C n.l lXbXvX>Xj ,.rXrXhXhXhXrX=XrX5X2XuX8X=X=X,X!.oXN.oX",
"q.9.L.L.R B.4X4X.Xm..XV.n._ X.X.X.F r.R.(.-XkXCXkXxXVXbXe - 1 5 ' p.1.'.M.| H { }.uXrX,.U {.7XtX!.XXrXoX=X.Xz.x.p.m.(.,XV.V..X/.",
"3.S.3.q.k.L.5.*XN.S ,.M._ +.f A m 8.r.#.7.E.pXAXkXaXjXxXa 1 4 5 p.=.h.;.j.%.| B } p.!.!.k.~.!.$X8.+.rX,XN.!.].1.I [ r.oXm.+.V.!.",
"&XD.3.H.~.E.T.T.W.0.,.e.e.e.!.O.T.6.T.8.o.6.w.^.-XaXNXbXe % 3 e -.R l.:.L.h.}.G ~ c.%.XXJ.{.^.T.R.,.t.oX(.t.!.N.!.N.m.{.!.>.Q.N.",
"0X).P.@.6.{.$X&X~.9.N.,.r.M.XXl.*X{.9.N.6.O.6.3.+XgXNXBXe @ % 3 ' $.1.h.*.l.z.G d.eX{.7.Q.*.tXN.N.0.,X/.=XW.!.N.!.N.j.v.v.*X!.{.",
";.+X+XE.w.9.$. XL.c...!.e.e.,.,.j.v.h.0.l.q.D A.Y.eXMXbX9 : 3 6 I :.U Q.v.P :.C.u R $Xw.Q.>.X.!.B.h.j.XXj.].^.7.(.R.w.9.Q.N.!.$X",
"R  X&Xq.~.:.%.Q.|.k.k.V _ _ e.2Xm.5Xh.l.9.6.S.@.3.jXZXKX9 @ 1 # ] :.9.U '.p.-.gXM G ].T.B.v.9.Q.]. XB.B.'.4XQ.{.6.=X!.!.!.Q.{.=X",
"T 3X~.P.9.1.A *.k.[.5.5.f B..XrXB.S B.Q.o.D.D S.3.wXHXKX, : 3 X <.%.Q.W B.9.h.p.C.G Y {.1.v.:.h.4X Xc.=.8X|.x.~.[.L.{.{.XXN.9.*X",
"Y '.L.H.*.9.] V 6X[.L.$.R $.5Xj.w.X.,.W.o.A D.E.o.0XHXHX6 + 1 3 ] h.:.&.j.*.*.'.u.Y -.h.h.v.:.c.'.#X4X;.i.I.[.[.v.[.c.].XX{.0.[.",
"| R k.L.5.'.j.V ..[.c.&. X1.yXm.6.w.6.o.O.T.@.A.q.#XHXnX,   6 0 a.1.Q.$.Q.*.*.[.}.M =.h.h.'.v.;.N.=X{.{.R '.7X$Xl.{.{.9.XX*X~.h.",
"1.H x.h.v.v.v.Q.5.L.c.k.v.{.C tX*.W w.X.N.2.D.3.3.6XGXbX: o @ 6 a.x.9.h.*.%.9.x.:.:.M =.x.'.v.B.!.N.N.$X].U T.%X^. X{.Q.Q.T.%X{.",
"1.M R h.h.v.1.5.5.g.&.v.*.` ) B.1Xu.1.0.0.1.A 3.5.I.FXcX: - @ 6 | :.h.4X=.h.h.h.-.] %.I x.}.C.].1.Q.N.XXN.1.Q.{.{.Q.v.J.v.0.N.N.",
"h.'.R '.'.].h.q.&.! L.{.Q.0.V.J E 1X%.+.0...3.! g.3XFXbX< - : 6 ' h. Xh.h.' :.1.] *.9.1.v.C.1.].[.*.{.l.;Xw.v.4X'.v.v.l.j.T.w.,.",
"v.h.G i.x.l.k.J.v.%.u x.N.XX/.N.Y =.l.X.0.W o.! ^ 8XGXSXw + 4 % $.:.&.f.:.v.R x.:.~..X1.&. Xq.L.#X5.5.h.{.XXv.v.T [.'.!.,.N.l.X.",
"5.x.u.G  Xl.k.2.{.{.$.:.V >.0.oX'.T *.l.9.2.3.@.4.eXJXGX* @ 4 e } T [.L.R B.v.=.~.Q.B.OX2.q.L.q.#X|.f.:.$.*X!.B.;.P ].!.V.N.Q.N.",
":.l.v.G R [.k.*.l.j.:.Y B.I <.B.L.v.n 9.&.&.@.D W aXJXbXo @ 1 i [ 1.9.P | J p.h.9.].1.1.B.*.w.*.q.~.h.%.P l.oX!.v.] ) V.].1.v.1.",
"j.5.'.h.P h.4Xk.*.'.;.$.].].| <.l.*X:.h.4.S.3.@.O.8XGXDX4 ; 1 6 0.0.q.k.<.-.p.'.%.>.!.m.B.7Xv.w.6.~. X].-.I >.%X*Xv.] B.OX].1.}.",
"k.5.9. XR R  X*Xj.h. Xh.U j.!..Xv.Q.*.W ! @.q.2.W 8XbXDX- ; 3 0 <.q.K.q.l.B.$.gXsX>.0.N.h. X7Xk.v.0.Q. XOX%.1.J.[.[.1.] '.B.'.v.",
"c.9...$.%.%.=.i.B.B.-.x.U X.Q.].].'.Q.*.Z 2.! *.A }.DXSXo & & e %.$.&.$.x.-.h.$.v.B.1.%.v.'.[.9.1.*X%.v.}.:.R L. Xv.1.B.%.x.h.B.",
"h.1.-.| <.] R Y Z.B.%.} I C 1.B.C.x.B.5.L 5.$.%.n }.GXSX+ % @ 6 ( | } E { { Z.Z.| <.<.J s.s.x.' -.].V ] z.-.} :.C.} -.}.I a.J j.",
", . % , 5 , , < 9 < , < < t B g H z B M u H x x # t b.y.* @ @ 1 # : < : 5 > > : 5 : : 5 t e e 5 g 8 a l H x g z z H B J g J B x ",
"    @ X @   - @ - + + + + + * o + o * + +   . .   o o * o O O @ O + + + @ @ O @ @ @ @ @ @ o 4 @ - O O - - - O O O - -   o @ o o ",
"% X % % X , , 5 : : 2 : r 0 w 5 : # 2 : 4 : 2 6 3 a a 4 w k s i 6 1 : % 2 2 6 & i s 0 h r 5 i 6 - - > 4 4 4 + + @ @ i i : : + * ",
"5X].0.j.Q.{.#X7X*X Xv.{.aXhXvXvXkX;X=XyXyXyXfXhXkXNXCXBXvXBXBXvXsXdXkXsXxXhX(.t.%XtXaXhXxXgXkXkXh.v. XNXjXfX}.4XkX[ | HXVXGXcXzX",
"$X7Xo.M L.q.{.0X+X2.q.[.0.9.^.sX$X6.9.l.!.!.OX=X;X;X=XdXXX$X(.W.^.;XsXF.;X$X).m l.7X~.+X7X^.<XsX..T K.qX+XaXP 7XpX6.%.yXhXFXbXcX",
"7X+X$XQ.T [.0.pX^.^.[.'.] ) ` N.N.1.V 1.%.[ j.!.oXB.w.,XpX^.T.w.$XsX,X%XX.=X;XQ.B.p.aX+XQ.!.,X%XB.U *.7X!.oXrXN.=Xt.` =X1.VXVXcX"
};
