/* XPM */
static char *_000[] = {
/* columns rows colors chars-per-pixel */
"64 64 253 2 ",
"   c #0B080D",
".  c #080C14",
"X  c #150C13",
"o  c #0D131B",
"O  c #18141A",
"+  c #2C0D11",
"@  c #2B171A",
"#  c #391818",
"$  c #3D241F",
"%  c #081A28",
"&  c #181C24",
"*  c #251D24",
"=  c #391F22",
"-  c #17222A",
";  c #102936",
":  c #182936",
">  c #272429",
",  c #372628",
"<  c #272B34",
"1  c #2C2D34",
"2  c #38353B",
"3  c #470F10",
"4  c #471917",
"5  c #561B1A",
"6  c #6E1D19",
"7  c #4D211D",
"8  c #5A241D",
"9  c #68241D",
"0  c #76261D",
"q  c #511D22",
"w  c #492928",
"e  c #572826",
"r  c #46393A",
"t  c #573331",
"y  c #622522",
"u  c #682B24",
"i  c #772A23",
"p  c #6A332B",
"a  c #79342A",
"s  c #6C3A35",
"d  c #5D403A",
"f  c #764539",
"g  c #193446",
"h  c #282F41",
"j  c #263846",
"k  c #363B44",
"l  c #483E43",
"z  c #653F40",
"x  c #1C4557",
"c  c #384349",
"v  c #2F4C57",
"b  c #374954",
"n  c #2B5467",
"m  c #395865",
"M  c #3A6476",
"N  c #464647",
"B  c #584C4E",
"V  c #464B54",
"C  c #495459",
"Z  c #575659",
"A  c #704E49",
"S  c #645656",
"D  c #746156",
"F  c #485B67",
"G  c #565A62",
"H  c #685E62",
"J  c #48636B",
"K  c #59656A",
"L  c #466776",
"P  c #566B76",
"I  c #42717D",
"U  c #5A747D",
"Y  c #666567",
"T  c #756867",
"R  c #667479",
"E  c #727376",
"W  c #84221C",
"Q  c #882D25",
"!  c #972D25",
"~  c #883529",
"^  c #963427",
"/  c #95342A",
"(  c #9C342A",
")  c #9D3B2D",
"_  c #913C32",
"`  c #A3352A",
"'  c #A83528",
"]  c #A43B2C",
"[  c #AB3B2D",
"{  c #B13A2E",
"}  c #B33C2C",
"|  c #BB3D2C",
" . c #A63D31",
".. c #8C4938",
"X. c #994738",
"o. c #A7422E",
"O. c #B4422E",
"+. c #BA452E",
"@. c #AC4333",
"#. c #A84838",
"$. c #B44432",
"%. c #BC4533",
"&. c #B44A35",
"*. c #BC4A35",
"=. c #B54738",
"-. c #B34C3B",
";. c #BC4D3A",
":. c #AB533D",
">. c #B6543C",
",. c #BC533C",
"<. c #C24B35",
"1. c #C54936",
"2. c #CD4D32",
"3. c #C34D3A",
"4. c #C55236",
"5. c #C3533C",
"6. c #C9543C",
"7. c #C4593E",
"8. c #CB5A3E",
"9. c #D3603C",
"0. c #905347",
"q. c #A85945",
"w. c #BC5441",
"e. c #B65A46",
"r. c #BC5B44",
"t. c #8F6B5A",
"y. c #B9644B",
"u. c #A86653",
"i. c #B36B55",
"p. c #B86954",
"a. c #90766D",
"s. c #AB7C6B",
"d. c #C45641",
"f. c #C55C43",
"g. c #C75945",
"h. c #CB5C43",
"j. c #D55C42",
"k. c #C56346",
"l. c #CC6245",
"z. c #C4644B",
"x. c #CC644B",
"c. c #CD6A4D",
"v. c #D56647",
"b. c #D2654A",
"n. c #D36B4C",
"m. c #D6724E",
"M. c #C86B55",
"N. c #D36C52",
"B. c #D96C52",
"V. c #CB7254",
"C. c #CC745C",
"Z. c #C7785B",
"A. c #D47354",
"S. c #DA7354",
"D. c #D97857",
"F. c #D4745A",
"G. c #D47B5B",
"H. c #DB7B5B",
"J. c #E46B4C",
"K. c #E46C52",
"L. c #E47757",
"P. c #C87B64",
"I. c #D37D62",
"U. c #D87B63",
"Y. c #B28976",
"T. c #D7825E",
"R. c #DC825D",
"E. c #E4865E",
"W. c #CA8469",
"Q. c #D48364",
"!. c #DB8463",
"~. c #D98769",
"^. c #DB8B6A",
"/. c #DC916D",
"(. c #C88B76",
"). c #D78C73",
"_. c #C7947A",
"`. c #DC9374",
"'. c #D9977A",
"]. c #E48967",
"[. c #E5936B",
"{. c #E39473",
"}. c #EE9573",
"|. c #E39A75",
" X c #E99875",
".X c #E39C7B",
"XX c #E9A27C",
"oX c #F2A67C",
"OX c #487285",
"+X c #587885",
"@X c #657A86",
"#X c #727981",
"$X c #5B8797",
"%X c #688896",
"&X c #708A91",
"*X c #6E98AA",
"=X c #7697A6",
"-X c #77A4AE",
";X c #7CA5B5",
":X c #7CB6CD",
">X c #87898A",
",X c #988C87",
"<X c #899297",
"1X c #999899",
"2X c #AC9889",
"3X c #B79785",
"4X c #B1928C",
"5X c #A79C97",
"6X c #AAA29B",
"7X c #B6A599",
"8X c #879CA7",
"9X c #87A5AD",
"0X c #87AAB8",
"qX c #97AEB5",
"wX c #8AB2BC",
"eX c #A7A6A5",
"rX c #B1B1B1",
"tX c #C79B86",
"yX c #D99B84",
"uX c #E29E81",
"iX c #DAA387",
"pX c #C8AA97",
"aX c #D0AC93",
"sX c #D7AB96",
"dX c #E4A384",
"fX c #E8A988",
"gX c #EFAD89",
"hX c #F4B388",
"jX c #E5AE95",
"kX c #EAB598",
"lX c #F4B996",
"zX c #CAB6A9",
"xX c #D7BAA8",
"cX c #E8BBA5",
"vX c #F7BFA5",
"bX c #F7C49C",
"nX c #D5C4B6",
"mX c #EAC3A9",
"MX c #F5C7A7",
"NX c #E6C6B3",
"BX c #F4CCB4",
"VX c #FCD5B9",
"CX c #89B4C6",
"ZX c #89B5C9",
"AX c #96B9C7",
"SX c #A6BDC5",
"DX c #8EC2D3",
"FX c #98C5D5",
"GX c #ABCAD3",
"HX c #B0D9E9",
"JX c #BAE1EB",
"KX c #C9D1D0",
"LX c #DDEAE6",
/* pixels */
"r , - ; o k E t.t.t.t.s.(.(.W.P.Y._._.iXtX(.iXiX5X*X$X- D xXNXmXcXcXcXcXmXmXmXBXmXnXzXpX7X3X2XE M I F >X5X6XeX5X>X>X1X<XR Z 2 > ",
"U.}.t.%Xn 4XV.n.f.r.m.L.L.L.L.L.L.].].[.[.E.R.].kXGXHXk u._.dXdXiXfXfXfX|.|.fXgXgXgXjXkXlXgXgXMXAXFXT uXcXMXVXVXVXBXMXBXVXVXnXzX",
"g.}.t.wX%Xi.5.5.;.>.x.n.m.n.l.n.S.D.D.!.!.H.G.L.uX<XGXN u.s.).'.'.dXXXQ.!.!.|.dXfXdXdXjXdX'.(.gXrXZXt Q.jXcXcXjXkXkXkXjXMXBXBXVX",
"w.L.t.wXR e.d.5.;.;.h.f.h.l.l.l.n.m.A.G.D.m.n.H.fX>XFXl i.).).~.)./.~.^.R.D.D.R..XXX`.'.dX.XdXgXrX:Xt P.kXcXcXsXkXkXlXMXMXBXBXBX",
"w.L.a.0XZ w.d.5.1.*.5.7.8.8.9.9.v.m.n.A.c.c.N.!.fX>XZXr Z.`.^.'.^.^.I.!.T.H.m.H.[. X`./..X.XuXfX7XZXt P.kXjXjXkXfXfXjXkXcXmXkXcX",
"-.L.t.-XB -.;.3.3.3.5.5.7.4.<.8.l.b.x.c.V.Z.V.c.`.>XDXr p.`.Q.~.Q.!.!.!.R.H.D.!.[./.{.|.|.|..XdX7XDXt u.yXyXyXyXdXdXiXjXkXmXkXkX",
"-.v.D %XN -.=.*.<.<.h.5.7.3.+.4.>.f.b.x.V.W.I.c.p.&XZX2 q.!.Q.).Q.y.V.!.^.T.F./..X|.[.^.{.|..X X7XFXB q.(._.'.'.yX'.`.dXkXcXkXkX",
" .3.Y %Xr @.$.$.O.$.;.7.6.3.<.8.=.f.v.k.,.h.x.F.!.%XDXr i #.e.i.W.u._ G.G.V.;.f.!.{.^.^.!.^.[.].,XAXB X.).yXiX'.uX`.C.z.dXkXkXkX",
"6 W Y @X1 u i i i y 5 e y u i ~ Q i u y y 5 # 4 e %XFX2 4 4 4 # 5 u 5 9 9 i i i i u y i i a _ ..@XFXS i ..q.q.u.q.y.P.s.p..X`.~.",
"X & @XP < O O O O O o . . .       o o o & - < 2 G -X-Xc * > > > * O O O . o & & - > > < < 1 k L 0XAXP @ , @ @ @ + # # w e e 7 4 ",
"a.3XtX3XY.s.s.3XtXtXtX_.D v v % Y Y._.aXaXtXiXfXiX).iXsXyX'.'._.tXtXaXaXa.M *X$XT tXaXpXxXsXnXnXNXxXnXpX7X7X7XeXeXeXE c < b Y Y ",
"F.x.n.n.b.c.c.c.c.N.H.].).K -Xv p.M.M.C.N.d.,.7.r.5.b.D.H.H.G.r.N.R.].}.dX%XHXU ..uXjXkXfXdX[.XXfXdXgXlXMXMXVXVXVXVXVXnX8X5XyXVX",
">.w.5.,.7.d.,.d.g.c.N.S.].T ;Xk #.w.w.;.>.&.=.;.@.=.3.6.f.f.f.z.x.F.!.!.[.E JXY ~ yX'.).'.|.].].|.fX`.dXlXlXkXlXmXmXmXNX1X0.r.VX",
"-.$.$.5.5.*.5.d.d.h.c.n.L.T wXk $.d.;.*.;.=.=.=.=.-.1.3.d.h.h.f.z.x.x.F.V.G FXZ 0 W.'.`.'.!.D.R.^./.'.dXgXkXkXkXmXmXcXNXa.f #.BX",
"@.[ =.3.5.>.5.3.3.6.g.h.S.a.0X2 @.d.3.=.*.$.$.O.| *.3.1.| 3.6.h.x.g.d.h.k.Z FXV 0 Z.`.`.'.^.H.D.Q.^.{.dX.XdXfXkXcXmXmXcXa.s q.mX",
") ( $.;.,.;.%.3.3.3.5.<.b.E =X1  .w.=.$.$.$.&.$.%.<.7.3.1.3.<.5.6.5.5.6.c.Z AXV 0 p.~.).~.^.!.G.V.^.|.'.|.dXdXfXkXcXcXxX,Xs y.mX",
"( ) [ @.@.[ } %.$.=.5.g.b.Y %X> ) =.;.=.@.@.$.O.O.<.g.h.1.=.$.<.3.6.h.l.A.Z *Xk 0 p.W.P.P.~.Q.Q.~.Q.].{.{.{.dX'.uXjXcXxX5XA #.kX",
") ] &.o.] ]  .[ ] @.@.$.d.Z +X> Q @.=.*.<.;.$.%.=.%.6.6.%.^ %.8.6.5.7.n.n.H ;Xk u p.).P.P.I.~.`.'.).U.!.].~.I.`.{.dXjXsXrXS  .dX",
"0 Q i Q i i i 6 9 9 0 i Q G U - 6 Q i i Q ) ~ 0 Q Q Q 0 6 W ^ ) ) ^ ^ ) X.Y CXV y q.q.u.e.e.q.W.'..X).~.).0.) w.e.M.P.Y.GXY / I.",
"X X X X O O X X X X X X > U U ;   X X . . X o o O X X X O X X O * @ * > V 8XAXP X @ @ # $ $ w w e e w , = @ @ @ @ = , Y GXR y y ",
"; g g g : 1 l r B S Y Y a.1Xa.Y B Z S S T Y H C j n n v v Z E >X1X>X>XeXrXrXrX<XR Y Y K Y Z V < ; g j : b F J J F P %XwXGX0X+XP ",
":.1 OXM B ~.'.W. X[.oX X[.F.M.I.].].I.^.{..XlXlX_.P GX;XD {.{.{.gXhX'..XfXkXmXMXBXMXNXNXBXBXmXaX,X*XDXH u.iXyXsX(.'.sXtXsXxXxXnX",
"].s OX+X0.x.z.M.r.7.h.h.g.z.z.r.#.,.f.k.;.*.c.H.oXE GX%Xa n.l.V.^.C.y.M.Z.G.Q.].[.[.|.`.|.'.W.}.'.;XZXq ] Q.`.q.P.[.[.[.U.).iXkX",
"L.f +X$X0.>.-.-.o.$.*.3.5.g.h.z.:.e.f.l.5.3.5.h.].E AXK a 8.,.f.N.V.C.V.G.G.m.v.H.E.E.].^.I.M.G.).=X-X5  .F.~.Q.Z.~.~.U.C.P.'.dX",
"L...%X$X0.>.-.-.-.@.O.$.%.3.6.7.f.z.z.7.6.6.*.h.].T qXC i 4.7.f.k.z.k.N.N.F.n.n.S.F.N.H.G.C.N.z.P.%X-X5 #.F.C.I.Q.I.I.U.p.I.).`.",
"B.0.%X$Xf -.:.#.X. .@.$.%.=.3.3.5.r.>.5.7.6.3.5.S.D qXF 0 7.7.l.g.g.k.n.N.n.m.n.n.G.F.!.F.U.N.L.).9X*Xq  .U.V.C.I.).I.~.F.I.I.`.",
"j...$XOXs #.#.X.X.)  .$.$.*.%.*.,.w.,.;.g.5.1.1.j.S AXF 9 g.6.h.h.f.x.x.b.n.v.n.x.F.S.!.!.H.B.B.W.9X*X5 / M.C.M.C.I.Q.I.H.H.V.I.",
"j...I n z #.X.X.X.X.#.#.@.;.d.=.,.f.,.*.<.1.%.1.j.S CXm 9 g.x.b.g.d.k.x.x.n.b.n.N.b.n.D.].H.S.B.P.8XCXw _ z.c.M.C.I.I.U.!.].H.[.",
"j.a M x A X.X.X.0.X.#.#.:.r.z.o.#.w.>.%.| } } 1.j.Y AXF 9 ;.g.B.L.K.B.n.n.S.H.].z.S.h.F.].].L.L.D.<XCXw #.^.~.r.w.f.M.F.L.].}.XX",
"6 w +Xn , s s p p a ~ a a p u i 9 9 9 0 0 0 0 0 9 K FXJ 4 ~ ~ / / _ #.X._ ^ ^ #.X.Q ^ ) q.X.] ^ _ =XCXw Q q.y.) / @.) X.:.q.e.z.",
": M +Xn % . . o & o o o o o o o o - < < < < : : m *XZX+Xo & & * * O O O O > 1 & & & > * > 1 k b @XCXwX2 * > * * * > < > & * * , ",
",X4Xu.u.t.s.Y.Y.Y.Y.t.a.%X-X&Xm qXKXKXKXKXKXrXzXxXxXnXnX7X3XpXpXaXpXzXpXE %XAXm 2 s.tXaXxXsXsX7X2XzXzX7X6XeXeXeX5X1X1X&X=X&XR ,X",
"d.w.;.w.g.c.F.S.N.H.S.U.<XJXSXF rXpXpXpX3XpXP.G.H.E.}..X X{.|.{.XXgXgXbXxX;XJXC f fXlXhXMXdX.XXXlXlXlXlXMXMXMXMXvXlXlXsXSXGXt -.",
"[ [ $.@. ._ o.@.=.5.g.j.a.HX9XN s.u.u.u.u.p.V.D.F.n.m.n.m.R.!.A.R.[.^.].sX;XHXN i Q.fX|.|.[..X'.|.|.|.{.|..XyX.X{.{..XXXrX8X3 ] ",
"` ` [ ] ] ]  . .[ $.;.j.D SX=Xr q.i.y.y.e.r.z.V.A.n.b.v.x.A.H.H.D.D.R.E.iX%XGXl 9 p.^.^.[.R.G.~.T.!.].].^.{.`.I.Q.].{. XeX=X5 / ",
"( ( ( ` ] ( ] ] [ { %.6.A 9X&X, X.y.y.-.>.,.f.x.c.b.8.l.h.n.A.D.A.S.D.E.'.+XCX2 9 p.Q.G.!.G.k.k.G.!.H.H.F.H.~.~.I.H.].].eX=X5 / ",
"( ^ ( (  .) ` ( ' [ %.J.A =XU , q.y.k.d.;.;.d.k.l.x.k.d.5.x.x.x.D.m.S.R.).@XCX2 5 p.!.~.!.D.V.G.A.G.H.S.S.N.F.G.S.S.F.N.rX9X5 X.",
"( ! ! ( ( ! ( ` ' } %.j.A +XJ , q.y.f.w.$.$.5.l.l.f.x.l.w.h.x.7.b.n.n.D.W.@XGXN e y.n.G.G.m.F.R.T.F.F.c.l.b.c.b.N.F.S.B.eX0Xe / ",
"/ / / / / ) Q ( ' } | J.A $XL @ q.q.e.w.$.7.g.d.N.n.N.n.b.x.N.S.B.v.S.n.V.P AXN 9 e.m.G.~.N.7.x.D.H.z.z.x.b.n.A.D.S.H.S.qX0Xe #.",
"p a a a Q / Q ! ! Q W [ l +XJ & ..q.e.r.=.3.h.h.x.N.n.B.b.j.-.h.v.9.7.J.i.U AXN y #.A.H.S.,.d.v.n.D.E.H.-.h.b.B.z.w.l.C.SXwX4 _ ",
"& @ # @ # + + + @ @ O & m +XJ - > w w e e y y y e e y u u 8 4 8 i 0 4 5 V =XqXV @ e y 5 5 3 5 9 u 8 8 y 4 # # 4 # # w #XGXGXb 1 ",
"O ; ; ; > c N N c k V R R G C k r N r B B N N V : % ; ; % : j 2 N N c C @X<X&XR b c b C R &X&X%X+XL n : V K Y Y E >X,X1X5XeX<X>X",
"r.C I b q.W.{.{.).I.C.~.).'.yXiXfXlXfXfXjXkXkXcXzXF *X$X< u.(.iXdXdXiXkXkXjXkXcXxXxXcXNXLXLXLXLXLXHXDXk u.jXcXsXjXBXsXlXMXbXkXkX",
"v.S +XN ! o.4.<.>.1.1.%.1.3.4.6.A.R.H.m.k.c.G.N.dX<XwX%X# w.l.l.l.5.x.F.S.S.L.D.N.!.{.`.iXzXGXJXLXJX;X+ X.G.].N.x.~.Z.I.XXfXdXfX",
"3.A U l ^ ] } +.[ | } $.%.<.%.+.5.d.h.l.f.5.4.l.{.>XAX+X4 [ =.8.l.f.l.l.l.j.9.l.c.c.H.H.Q.W.1XGXKXGX*X+ X.k.G.r.h.F.~.~.[.|.^.~.",
"%.t J r Q ] [ } [ [ [ } } } | O.&.,.d.d.7.3.;.8.[.>XSX+X7 @.;.x.f.5.f.h.l.8.8.l.x.n.S.N.F.P.5XSXGXFX%X+ X.A.G.H.H.S.~.Q.^.{.{.'.",
"} e b r Q ! ` ] ] ] ' [ [ ' | %.=.=.,.;.$.*.*.5.].<XAX+X8 O.] ,.g.6.6.6.6.6.6.7.8.l.x.n.b.M.7X9XqXwX%X# X.x.F.z.n.H.!.C.!.~.^.'.",
"} y b 2 Q / ( ` ( ( ] ] ` ' [ O.%.$.3.5.5.$.=.3.H.<XAXP 4 @.$.&.,.;.<.6.5.3.6.6.h.h.c.F.A.W.7X9XqX0X%X4 e.A.N.x.c.H.].I.F.].{.].",
"} 9 v 2 Q ! ( ] ^ /  .) ) ` | +.%.*.*.5.7.$.} *.D.>XCXJ 4 [ ;.,.;.$.%.d.k.5.h.8.8.k.z.N.Z.P.Y.5XqX0X%X4 e.S.N.c.x.n.H.R.F.H.].].",
"' 5 v 2 0 ( / ) ) ) o.#.#.( } | +.*.$.#.@.=.;.%.K.E CXP 8 ] *.8.7.;.=.d.d.:.r.b.l.l.f.z.M.P.P.(.4X*X%X4 w.h.N.:.z.S.].H.D.H.].].",
"3 , m < # y 8 y y u a a a 9 9 Q ~ ~ ~ Q a Q / ^ ~ C AX@X@ a o.#.X.o./ X._ ~ ~ o.X.X._ X.X.....f B =X=X, u a p t e s s p a u e s ",
": v b j % & & & O O & & - - & : & & & & & & O : M *X;X@X: > 1 1 1 , 1 1 1 & & < < > > > > > k F =X0X8X@XC C Z T T E U U P K J P ",
"p.u.0.0.0.....f d f s w < n M g r D D t.t.Y.t.s.2X2X2XY.a.t.t.a.a.t.D f w OX*XOX1 s f 0.s.4X,X7XnX7X2X7X2X3X3XY.Y.tX7XqXwXAXa.(.",
">.N.b.m.m.v.v.L.B.B.x.L.X.m %Xk P.XX.XgXG./.[.x.R.[.}.hXbXbXfX[.oXhXhXbXY.%XJXU u F.G.[.dXfXkXjXdXlXMXlXMXMXMXmX{.dXfXyX9XwXi Z.",
") @.$.@.[ O.+.O.O.$.O.6.>.F &Xr  .&.5.8.#.[ 4.1.5.4.6.f.k.c.,.o.o.>.S.E.jXR FXF 5 x.k.z.z.z.D.G.c.A.H.R.!.E.[.P.M.M.F.I.9X=X6 z.",
") ' [ [ ] ] [ [ ` [ [ %.$.G &X2 ) $.*.3.*.] o.<.<.<.*.&.d.6.V.7.2.4.9.J.W.P wXV 5 -.d.f.k.k.c.n.n.b.n.G.R.R.!.G.z.y.M.P.;XP 0 H.",
"( ' ] ] ( ) ( ' [ ' ' $.[ l P , ^ } } %.*.*.Q } +.%.*.;.;.;.,.r.<.2.2.9.s.&XAXk u k.5.7.k.x.k.l.h.h.n.m.R.I.G.F.I.P.M.(.wXZ 6 I.",
"! ( ` ` ( ( ( ( ' ` [ O.[ r J , ^ [ O.O.O.O.} O.%.+.%.;.*.;.>.>.5.<.<.2.Z.@X0Xk 9 k.f.w.7.k.V.f.8.h.l.n.F.Q.Q.I.I.W.Z.3XAXZ W R.",
"Q ! ` ` ( / ( ^ ! ! ' [ } t J > / [ O.} $.[ } O.;.;.*.%.$.*.7.>.] O.+.2.M.%XFXV 9 z.f.,.,.7.k.y.e.B.l.b.n.F.I.Z.I.I.F.s.wXB 6 c.",
"Q / ] [ ) ( / ( ( ^ ^ ( [ t m > / [ @.O.$.O.$.&.-.;.5.,.#.&.w.r.&.3.3.2.y.&XFXV 9 f.x.d.7.f.7.,.y.F.c.g.r.c.C.M.M.I.M.s.9Xt Q V.",
"u Q Q / / / ( ! ! ^ ^ ( ! r m - / O.&.-.*.*.*.$.>.;.7.d.r.>.-.d.7.1.4.2.X.%XAXV i w.x.f.7.B.M.M.C.F.x.z.#.w.e.y.r.r.u.>X9Xw i q.",
"% & > > > * @ @ @ @ # # + j m ; @ w e e p p p u e u p p u e 8 y i 0 a p T %X;Xm @ e s e e s t e e e e e w w , w , N E GXGXF > > ",
"t , c v : 2 r r N c k c j h h < & & > , * & - % % g g ; o - < c 2 2 r H 1XE E N , , $ # 4 4 #   o j j & , d 0.Y.4X7XnXKXKX6X3XtX",
"#.#.V v s d.S.L.R.C.p.Z.q.&.*.&.,.r.y.y.e.:.q.q.t I 0Xj d Y.yXjX).'.jX'..X{.|.i.i.oXXX[.hXhX[./.B %X@X4 ~.dXjXcXcXcXcXjXkXkXgXdX"
};
