/* XPM */
static char *result[] = {
/* columns rows colors chars-per-pixel */
"64 64 107 2 ",
"   c #040305",
".  c #070509",
"X  c #09060A",
"o  c #0C090D",
"O  c #100B0F",
"+  c #0F0B10",
"@  c #120E13",
"#  c #151116",
"$  c #191417",
"%  c #171219",
"&  c #1A151B",
"*  c #1E191E",
"=  c #201A1F",
"-  c #1F1A20",
";  c #231D23",
":  c #281F27",
">  c #281F28",
",  c #252126",
"<  c #292226",
"1  c #272228",
"2  c #2C242B",
"3  c #2E292E",
"4  c #31272E",
"5  c #312A2E",
"6  c #2F2B31",
"7  c #322730",
"8  c #342C33",
"9  c #392E36",
"0  c #342F3A",
"q  c #392E38",
"w  c #363136",
"e  c #3A3236",
"r  c #363239",
"t  c #3C343A",
"y  c #3D393D",
"u  c #41363C",
"i  c #433A3E",
"p  c #493F3F",
"a  c #393642",
"s  c #3E3B41",
"d  c #433D42",
"f  c #493E42",
"g  c #433F48",
"h  c #454145",
"j  c #4B4345",
"k  c #484847",
"l  c #46434A",
"z  c #4B454A",
"x  c #4D494D",
"c  c #504546",
"v  c #504649",
"b  c #534B4C",
"n  c #594F4E",
"m  c #5A504F",
"M  c #4D4B52",
"N  c #524D52",
"B  c #594F50",
"V  c #514F5A",
"C  c #4F5055",
"Z  c #545155",
"A  c #5B5354",
"S  c #5E5857",
"D  c #55545B",
"F  c #59565B",
"G  c #57585E",
"H  c #5C595D",
"J  c #615756",
"K  c #615957",
"L  c #615759",
"P  c #635C5C",
"I  c #685E5D",
"U  c #65605F",
"Y  c #575761",
"T  c #575960",
"R  c #5D5C62",
"E  c #5E5F69",
"W  c #615E62",
"Q  c #5F6064",
"!  c #5F6169",
"~  c #636264",
"^  c #6A6564",
"/  c #64646A",
"(  c #68676C",
")  c #66696D",
"_  c #6B6A6D",
"`  c #716E6F",
"'  c #656770",
"]  c #666A72",
"[  c #6B6C72",
"{  c #716F72",
"}  c #6E7175",
"|  c #6E727A",
" . c #727275",
".. c #73767A",
"X. c #757A7D",
"o. c #7B7A7D",
"O. c #767B81",
"+. c #7A7E82",
"@. c #7D8185",
"#. c #7D838A",
"$. c #818081",
"%. c #83878B",
"&. c #83898D",
"*. c #868C91",
"=. c #898E93",
"-. c #889093",
";. c #939CA2",
/* pixels */
"z k p y y e k n k c p p p j u e u q u u u u * 3 F %.$...{ _ ( W W N f f B g M v k M k k g k k k w D @.] ] ) / H Z M z d t u t d ",
"h h i i y w 3 i p p i i i i u 8 4 9 4 9 u ; * 3 ~ $.o. .W W H A B g d d f f d g h l k g y r s s 3 k X.] ~ ~ R D x z g t 9 8 q q ",
"k h h d y w - 3 e p e u u u t q 4 4 5 q 9 @ 5 3 e I  .` W B B B b f d d h h t s s s s s s C s y 6 y } ) ~ R H D x h d t 8 7 7 q ",
"k h h h k k - * < e u e 9 q t q q 4 4 q # ; 8 5 ; 4 A ^ W b z f f d d 7 8 g s t y y s ! @.} R r w 6 ) ) H D D Z M f s e 9 4 4 8 ",
"k p h k s k s $ @ ; 5 e 9 q 9 9 e 8 8 ; # 3 w 3 @ $ 3 Z P b f i d a y 1 , s s r r D ..#.#.[ _ x 6 1 F / H Z Z x v g t 9 9 4 2 8 ",
"k k k k Z H ^ U t * * < 4 9 9 9 r t 2 . , w w 5 3 % & 8 n J f u u e 9 & 6 y r C [ O.O.X...| W P w 1 i ~ F Z x z z f t 9 7 7 < 4 ",
"k k S ..@.@.@.$.$.^ < # = ; < 4 6 * @ s Q ) _ Q N t & & 8 v b u q u 1 - y r Q #.+.] [ [ [ [ W R z , 3 A A b k j d d t 9 8 7 2 3 ",
"k ) +.+.X.X... .`  .^ ; O @ # & + , } ;.*.} .. . .( h % & 4 d f u 9 & 6 y ! X... .( E / E / R Z F w - k b k h i d d u 9 7 4 4 2 ",
"H #.X. .} } ` _ ^ ^ ^ S w 1 = @ 3 X.-.#.*.X.( / ^ / P y % # ; 3 : # - r ^ o.( _ [ / G H H T D x A k = e b p p u u t u 9 4 4 4 4 ",
"} @.X.} _ _ / ~ U P P P M h p s ` @.@.@.@.@.[ H H S H h 0 - o + @ X 2 z o...~ W ~ ~ Z Z V N z z k n 3 ; c p p u e t e q 8 4 < 4 ",
"X.X.X.} / ~ Q H F A A S S k y S _ `  .[ } } } R n Z A k r r 3 - - 1 6 H { [ ~ F H H M x x x h p h k p $ e c i e e e e q 9 4 4 4 ",
"} }  . ./ H F Z Z b b A C k k S H ~ ( ( / ~ ~ ~ A k C s r r y r t t 8 W ^ ~ ^ F N N l d h d d y y p k = < c p e e 9 5 e 8 4 4 7 ",
"U _ _ _ ( F Z N x z j b n s S P A D F F F F F F A b e 3 r r r r r r t I P P P F z x i y y i y e e u p < * i p e e e 9 e 8 9 4 * ",
"C U ~ ~ W H N z k j p c k y S U N z x N N M v x Z b $ 3 w 6 r r r 6 i ^ A A A Z z h y e w t t w e e i 3 * 5 c e e 5 5 e 9 4 # O ",
"k ~ S H H F B k f i i p i e S S B z d d g f h j k ; g ! Q C t 8 r 6 t ^ A b b n z f t 8 w 5 e 9 5 e e 3 ; $ u p e 5 5 5 1 + X * ",
"w ~ S S N N N z i u y i y e m b b z d t a d i j 2 h -.*...O.| s 6 6 8 ~ P b v z z i t 5 3 3 5 8 8 w e 1 < $ = u e 2 = o X o & 2 ",
"3 S U S k k k k f t e u u 5 b c f f d 9 8 9 u t & H @.$.O.[  .} d 3 3 A I b f f f p u 5 2 2 4 4 5 e 8 < 1 - + + + . . . O - 1 3 ",
"3 k S S m k p i u u e q e 5 j f d i u t 7 9 u = - r _ X.+.[ / [ ( t ; c J n f i u u u 8 5 < < < 5 5 * 3 s Z M y 1 # O $ = , , 1 ",
"w p S n b j j y u q t e e < i p u u q u t e < & y , n { } } R R ~ H 4 9 n B f u u u u 9 4 2 < < 2 $ - Q | ] W T C x 8 $ * * ; , ",
"w e m b c j p i q 9 q u i 3 5 i q 9 q q t e # 8 s , 8 U ( ( / Z Z H j > b b c u e 9 9 9 4 4 < < & # G } ' ) E N l h p ; $ * - , ",
"p 5 n b j p i u t 9 9 u t 5 < w 9 8 9 e u & 1 d s r 1 b W W W V x b N 5 p c f u 9 9 8 9 2 2 4 : o h R R E H T V k y y 5 $ $ * ; ",
"h 5 n c f i u u q 9 8 q w w 1 8 9 8 9 8 * $ h l y y 1 e B A A A z d z e 9 f f u 5 8 4 4 2 < ; X 1 Q M C D Z N M k e w w ; @ $ - ",
"p 5 n c i u q q 9 9 e e 3 w , * 4 4 < # o y M C x s 8 > v b N N h i f e ; u f u 7 4 4 4 3 $ . o y U D x x x l l p w 5 5 6 $ # * ",
"h 3 b n p u e q 9 8 8 3 3 3 3 $ # @ o * C _ _ ^ W Z y ; u c f f z t y e & : u u 9 4 > ; # . + * w Z Z Z d h d s y w 5 1 3 $ + * ",
"y 3 i n j i e 8 9 9 2 = 8 3 8 3 @ * T X..._ W L A L z 2 2 j d u d t 9 e = O * ; ; # o   . @ , , & 2 k b p y u u e 8 < > ; # @ $ ",
"k 3 = w p p i e 8 , O ; 5 3 3 3 N +.=.+.( W W N z v B r ; t i u t t 5 9 9 O   .   o - & % , * , O @ 4 p p e 8 5 8 7 : ; @ @ O * ",
"U i o # = ; < = @ . O 2 2 3 3 z #.#.O...{ Y N v f f b g , 2 d e 9 q 4 7 4 & # O - ] [ ~ k 6 - , , # # 5 p e 3 5 7 2 ; * o o , h ",
"_ U 5 @ o o . . O @ ; < 2 2 y @... .| [ W Y z g d q d z 8 * 8 e 9 7 9 = $ * * = ! #.] ! ! R h 1 , 1 # $ 5 e 3 2 3 2 ; O @ r D M ",
"U U U w , $ $ = ; 2 2 ; 1 1 D &.X.( ( ~ H D v d q q q d d * - w 9 8 ;   # * $ t | | [ T H H H Z 1 , 1 + & 5 5 2 2 2 * @ h D x k ",
"P H U k 5 5 1 3 < < y h 8 ; d ..X.( F F B b g q 9 8 7 d h 8 @ - 4 = . @ * & $ C } ] ] R D D Z Z b 3 1 , + $ , < < 1 * g D l l g ",
"D A A n 5 3 1 ; 8 } %.%.o.b & t ^ _ L v z f f d 8 7 7 t s y * o O   % 1 * $ ; H / ! / G C M M x x i 1 1 - o o $ & o r D M g s s ",
"C b n k 5 5 1 5  .&.@.o.o.o.y @ t I P b d i d q 9 2 4 8 r t l x Z z 3 ; ; $ 8 ! R R R G M x l z k k w , 2 * o     o g C g g r y ",
"x k x j 3 3 1 ) %.O...O. .{ ` : $ f I B p u t 8 9 3 & 2 s | %.[ / / x ; ; & d H D D D D M l h d d d d 2 ; 1 - @ + % d k k y y w ",
"b p j i 1 1 y &.#...{ { ( ^ ` B $ : n A c u t w 2 @ o s | +.O.] D F F 3 * ; l Z N M Z M x s s t t r y 5 ; , ; - % & y s s y w 6 ",
"N z i y 3 , F @.+.O.] W W W W W e & t n c t 2 & X @ s _ [ ' ] ] Z M D w & 8 Z z x x l x l s e r e 8 e e - - - - % % r y t t w 6 ",
"z z p e 3 2 ( X. .| [ W R W H W z > % ; * @ o . ; F W H T T T E D x b y & t A h l h l d s s 8 8 8 8 8 8 - - - & & % 3 w w w w 6 ",
"d f f u 2 8 [ } [ ) / W F B V F z 8 % X o # & 3 A P Z x M M N N Z z j y * i Z k d y s y t t 9 4 3 3 4 5 ; * - & $ $ < 5 3 5 5 5 ",
"u u d f 1 e _ ~ W W R T V z v v b 8 6 , 3 8 w b A b x j h j l x x x i i - j b z y t t w 8 8 4 4 2 > 4 8 - ; & # $ $ = 5 5 < < 5 ",
"t q d f 3 t ^ W R F V B V z f f z 6 8 6 8 3 c n b j f y t y t d g z j 8 < j j k y w 8 7 8 5 4 > ; > < 4 - * & - ; @ $ 5 5 < < 5 ",
"9 q q d 5 u H F A N v x z f d d z 8 6 6 2 8 A b p p i w 9 0 e e a d j 2 4 f p d i w 8 4 3 2 4 > ; ; < < * & 6 k k w O = 5 2 , , ",
"4 8 9 u 3 i K N n z j h d d u t d 5 6 6 , e n z p u u 5 4 5 4 5 9 u f ; ; p i u u e 2 2 > > > : > ; 1 - % 6 Y Y k M ; + 1 3 , , ",
"7 4 9 t 2 i I b c j f y u d t 9 t 7 2 3 , 8 j f u q 9 8 4 4 4 4 8 u 8 $ = u u e e e 5 < : : : : ; ; ; % , M Y Y C l r . % 1 , , ",
"q 7 7 9 2 e K b p i i u t t q 9 9 7 2 3 2 2 i u u 8 7 4 : < 4 4 5 u * & = 3 u e e e 5 < : ; ; ; ; > - @ s Y M M C g s -   @ * , ",
"9 9 7 9 2 u J m p u u u 9 9 9 9 8 4 1 1 3 : 9 e q 7 4 4 : < : : 5 = @ - & 2 e e 5 5 5 < ; ; ; ; ; ; + , M l M M M l a 0 o   O = ",
"8 9 9 3 1 e m n p u q e 9 0 8 7 7 3 > 1 1 - > 8 8 7 > 4 > : < 2 ; o & - * 2 u 8 e 5 4 2 = = ; ; ; & @ r l l l l l l s y 1 X . # ",
"7 8 8 3 1 w m b c u 9 9 9 7 7 7 7 3 - ; 1 ; @ ; 4 7 7 < < ; ; @   # & & & ; u 9 5 5 4 2 < : = = - X - z d s s s s s s r w , o O ",
"7 8 1 8 1 3 c c f i 9 9 7 7 7 4 7 4 - ; ; ; $ X @ @ & # @ X     o & & & & & 3 u 5 4 < 2 < : = = + X 3 z d y y a a a y r 6 w * + ",
"2 * ; w 3 ; i c f p q 8 7 7 4 4 2 - - - ; ; > %     . .   . + % & $ % % & % @ 3 9 4 4 < < ; O . . # 8 d s r t t r r w w 6 1 3 - ",
"@ @ 3 8 8 - - i d f u 9 7 4 7 2 @ & ; - - - - 1 a M Y Y M a 2 & & & & % % - o X @ @ + + . .   . + % 8 t y e 8 8 6 8 0 6 6 1 > 6 ",
"@ 2 8 6 6 1 + @ 2 7 7 3 ; ; @ X X - ; - & - l | O.] | ] [ / F l > % & & % % % +           . X + + @ 3 t e e 8 6 6 6 3 3 3 2 ; 2 ",
"y w 8 6 6 6 - o . . . X . .   + - - ; * ; M ]  .O./ ! ! / W T D V > # % % & % % @ @ - 6 t a 6 - o o = e 8 8 5 2 2 2 2 1 > 1 ; > ",
"s r 6 3 2 2 1 - @ @ @ @ @ % $ ; - ; & 1 Z R T / | ] D T T T F N N z - % & % % @ & g ! Z M M M z 3 o % 5 5 5 5 2 , ; ; > > > ; ; ",
"y r 6 3 , 1 w y w 3 , ; > > ; - * - - z ~ T Z D R ' Y V N V V B z b 7 # % % % - M ' E Y M g g l z 2 o = 5 2 2 < : ; ; ; - ; ; ; ",
"r r 6 3 l / } X._ D b y - ; ; - * * t A F Y Z M M E R x x M x z z z 8 # % # % g E E Y Y M s g d d d * X : 5 < < : ; & ; - - & ; ",
"w 6 g | | } [ ) [ H Z A t - - ; * ; c N N N V x x M Y x d l d g d z q # % @ 6 E Y Y Y V V d s d s s t o O 2 < : ; = ; & & & - ; ",
"6 y X.#...! ) ~ ( ~ N x N 6 - ; ; 3 c z z z x x s g x M d s d d d j > & % - x T V V V V V z a r t t a 2   $ < , = = & & & & % ; ",
"r Q |  ...) R ! R R F z x j * - ; q p p j d d h s t y l g e t t d 8 @ & % 4 Y V V M M M M l a q r 0 r e @ X ; ; = = & & & & & = ",
"T @.( ) } [ H D H D F M f z 2 & ; d j u y d i a s r 8 t d t 8 t e O # & % s Y M x x l s g s d 0 8 8 8 q =   @ ; = = = & & & & & ",
"} @.( ! / ] E Z C M N N f h e & - i c u e e r e r r 8 7 q a 9 5 o + $ # - x D x l g g s s s s a 6 3 3 8 > . . & = = & & & % & O ",
"|  .} G R Q E Z x x x x k y y * ; u f u 9 8 8 0 7 7 7 < 4 t t X X $ # $ - N M z d s s s a a a a 8 2 2 7 < @ . @ & & & & & # X O ",
"_ [ [ W Z D Y D x d z d j d e - - 9 i u 9 7 7 7 6 3 3 2 2 7 @ X # # # # ; M M g s s t r 0 0 0 0 8 2 > 2 2 @ X X # - & # O     @ ",
"~ ~ ~ ( N N N N x s d d d d u ; $ 4 t t q 7 < 4 3 2 2 2 7 % X = # # # # ; z v g t r r w 8 8 7 6 6 3 > ; 2 @ o X . o .     . . X ",
"P H H W F g z z x d t a t t d < # > 9 9 8 8 > < > 2 > 7 ; X # % % # # # ; f g g t w 0 8 6 3 6 2 3 2 > ; > @ X o .     - 0 6 2 ; ",
"Z Z A F F z d d g g e r q 9 u e $ = 7 8 7 7 2 > > > 7 2 X # # # % % @ @ ; u d f w 7 7 7 3 2 1 1 > > > ; ; # X X . + 0 a a a 0 8 "
};
